<svg width="346" height="240" viewBox="0 0 346 240" fill="none" xmlns="http://www.w3.org/2000/svg">
<rect x="0.5" y="0.5" width="345" height="239" rx="23.5" fill="#F27979"/>
<rect x="0.5" y="0.5" width="345" height="239" rx="23.5" stroke="#484A51"/>
<path d="M50.112 156.208V162.856C48.6 164.896 46.032 166.288 42.84 166.288C37.896 166.288 33.912 162.28 33.912 157.288C33.912 152.296 37.776 148.192 43.272 148.192C46.008 148.192 48.144 149.248 49.32 150.376V154.192C47.88 152.464 45.648 151.192 43.272 151.192C39.72 151.192 37.152 153.784 37.152 157.288C37.152 160.648 39.648 163.336 42.984 163.336C44.832 163.336 46.008 162.76 46.92 161.92V158.896H42.552L43.32 156.208H50.112ZM55.8276 148.144C56.8596 148.144 57.6756 148.936 57.6756 149.968C57.6756 151 56.8596 151.792 55.8276 151.792H55.8036C54.7716 151.792 53.9556 151 53.9556 149.968C53.9556 148.936 54.7716 148.144 55.8036 148.144H55.8276ZM54.2436 153.712H57.4116V166H54.2436V153.712ZM65.645 161.68C65.645 162.904 66.317 163.552 67.445 163.552C68.141 163.552 68.765 163.336 69.293 162.904V165.712C68.669 166.072 67.733 166.288 66.821 166.288C64.325 166.288 62.477 164.824 62.477 162.016V156.232H60.461V153.712H62.477V150.856L65.645 149.848V153.712H68.933V156.232H65.645V161.68ZM84.3685 160.936L87.8725 153.712H91.2085L84.2965 166.648L77.3845 153.712H80.8885L84.3685 160.936ZM92.8439 162.184C93.9719 163.216 95.5079 163.816 96.8999 163.816C97.9079 163.816 98.6519 163.408 98.6519 162.616C98.6519 162.016 98.3399 161.776 97.5959 161.416L95.3399 160.432C94.0439 159.856 92.9879 159.04 92.9879 157.24C92.9879 155.104 94.8599 153.424 97.4519 153.424C98.8439 153.424 100.044 153.856 100.932 154.48V157.336C99.8999 156.544 98.6759 155.944 97.4759 155.944C96.5639 155.944 95.9399 156.352 95.9399 157.072C95.9399 157.696 96.3959 157.936 97.2359 158.32L99.3959 159.256C100.86 159.904 101.652 160.816 101.652 162.424C101.652 164.824 99.3959 166.288 96.9239 166.288C95.3159 166.288 93.8759 165.832 92.8439 165.136V162.184ZM126.698 156.208V162.856C125.186 164.896 122.618 166.288 119.426 166.288C114.482 166.288 110.498 162.28 110.498 157.288C110.498 152.296 114.362 148.192 119.858 148.192C122.594 148.192 124.73 149.248 125.906 150.376V154.192C124.466 152.464 122.234 151.192 119.858 151.192C116.306 151.192 113.738 153.784 113.738 157.288C113.738 160.648 116.234 163.336 119.57 163.336C121.418 163.336 122.594 162.76 123.506 161.92V158.896H119.138L119.906 156.208H126.698ZM136.566 166.288C132.99 166.288 129.99 163.552 129.99 159.856C129.99 156.184 132.99 153.424 136.566 153.424C140.118 153.424 143.118 156.184 143.118 159.856C143.118 163.552 140.118 166.288 136.566 166.288ZM136.566 156.16C134.622 156.16 133.134 157.72 133.134 159.856C133.134 161.992 134.622 163.552 136.566 163.552C138.51 163.552 139.974 161.992 139.974 159.856C139.974 157.72 138.51 156.16 136.566 156.16ZM152.472 166.288C148.896 166.288 145.896 163.552 145.896 159.856C145.896 156.184 148.896 153.424 152.472 153.424C156.024 153.424 159.024 156.184 159.024 159.856C159.024 163.552 156.024 166.288 152.472 166.288ZM152.472 156.16C150.528 156.16 149.04 157.72 149.04 159.856C149.04 161.992 150.528 163.552 152.472 163.552C154.416 163.552 155.88 161.992 155.88 159.856C155.88 157.72 154.416 156.16 152.472 156.16ZM174.882 153.712V164.992C174.882 169.384 171.474 171.328 167.73 171.328C166.026 171.328 164.37 170.896 163.314 170.2V167.056C164.538 168.112 166.122 168.544 167.682 168.544C169.842 168.544 171.714 167.488 171.714 165.16V163.768C171.042 164.8 169.554 165.736 167.754 165.736C164.538 165.736 161.874 163.096 161.874 159.592C161.874 156.064 164.538 153.424 167.754 153.424C169.554 153.424 171.042 154.384 171.714 155.392V153.712H174.882ZM171.786 159.592C171.786 157.6 170.226 156.16 168.402 156.16C166.554 156.16 165.018 157.6 165.018 159.592C165.018 161.56 166.554 163.024 168.402 163.024C170.226 163.024 171.786 161.56 171.786 159.592ZM179.345 147.76H182.513V166H179.345V147.76ZM186.115 159.88C186.115 156.184 189.067 153.424 192.427 153.424C196.315 153.424 198.283 156.28 198.283 159.928C198.283 160.168 198.283 160.408 198.259 160.672H189.091C189.427 162.568 191.059 163.648 193.315 163.648C194.755 163.648 196.315 163.144 197.371 162.28V165.064C196.147 165.904 194.467 166.288 192.931 166.288C189.067 166.288 186.115 163.576 186.115 159.88ZM192.379 155.968C190.843 155.968 189.619 156.976 189.187 158.56H195.307C195.163 157.264 194.179 155.968 192.379 155.968ZM208.177 148.48H213.577C218.569 148.48 222.577 152.248 222.577 157.24C222.577 162.232 218.569 166 213.577 166H208.177V148.48ZM213.385 151.168H211.417V163.312H213.361C216.889 163.312 219.337 160.576 219.337 157.24C219.337 153.904 216.889 151.168 213.385 151.168ZM233.292 153.52V156.688C233.028 156.664 232.788 156.64 232.548 156.64C230.724 156.64 229.308 157.624 229.308 160V166H226.14V153.712H229.308V155.608C229.98 154.432 231.252 153.496 232.932 153.496C233.052 153.496 233.172 153.52 233.292 153.52ZM238.359 148.144C239.391 148.144 240.207 148.936 240.207 149.968C240.207 151 239.391 151.792 238.359 151.792H238.335C237.303 151.792 236.487 151 236.487 149.968C236.487 148.936 237.303 148.144 238.335 148.144H238.359ZM236.775 153.712H239.943V166H236.775V153.712ZM249.712 160.936L253.216 153.712H256.552L249.64 166.648L242.728 153.712H246.232L249.712 160.936ZM257.763 159.88C257.763 156.184 260.715 153.424 264.075 153.424C267.963 153.424 269.931 156.28 269.931 159.928C269.931 160.168 269.931 160.408 269.907 160.672H260.739C261.075 162.568 262.707 163.648 264.963 163.648C266.403 163.648 267.963 163.144 269.019 162.28V165.064C267.795 165.904 266.115 166.288 264.579 166.288C260.715 166.288 257.763 163.576 257.763 159.88ZM264.027 155.968C262.491 155.968 261.267 156.976 260.835 158.56H266.955C266.811 157.264 265.827 155.968 264.027 155.968ZM274.172 169.336L272.132 168.76L273.788 162.136L277.244 163.264L274.172 169.336ZM34.872 180.48H40.272C45.264 180.48 49.272 184.248 49.272 189.24C49.272 194.232 45.264 198 40.272 198H34.872V180.48ZM40.08 183.168H38.112V195.312H40.056C43.584 195.312 46.032 192.576 46.032 189.24C46.032 185.904 43.584 183.168 40.08 183.168ZM59.9877 185.52V188.688C59.7237 188.664 59.4837 188.64 59.2437 188.64C57.4197 188.64 56.0037 189.624 56.0037 192V198H52.8357V185.712H56.0037V187.608C56.6757 186.432 57.9477 185.496 59.6277 185.496C59.7477 185.496 59.8677 185.52 59.9877 185.52ZM68.8078 198.288C65.2318 198.288 62.2318 195.552 62.2318 191.856C62.2318 188.184 65.2318 185.424 68.8078 185.424C72.3598 185.424 75.3598 188.184 75.3598 191.856C75.3598 195.552 72.3598 198.288 68.8078 198.288ZM68.8078 188.16C66.8638 188.16 65.3758 189.72 65.3758 191.856C65.3758 193.992 66.8638 195.552 68.8078 195.552C70.7518 195.552 72.2158 193.992 72.2158 191.856C72.2158 189.72 70.7518 188.16 68.8078 188.16ZM86.154 185.424C89.538 185.424 92.13 188.232 92.13 191.856C92.13 195.504 89.538 198.288 86.154 198.288C84.33 198.288 82.818 197.352 82.146 196.272V203.04H78.978V185.712H82.146V187.44C82.818 186.36 84.33 185.424 86.154 185.424ZM85.53 188.16C83.562 188.16 82.05 189.744 82.05 191.856C82.05 193.968 83.562 195.576 85.53 195.576C87.474 195.576 89.01 193.968 89.01 191.856C89.01 189.744 87.474 188.16 85.53 188.16ZM102.904 185.424C106.288 185.424 108.88 188.232 108.88 191.856C108.88 195.504 106.288 198.288 102.904 198.288C101.08 198.288 99.568 197.352 98.896 196.272V198H95.728V179.76H98.896V187.44C99.568 186.36 101.08 185.424 102.904 185.424ZM102.28 188.16C100.312 188.16 98.8 189.744 98.8 191.856C98.8 193.968 100.312 195.576 102.28 195.576C104.224 195.576 105.76 193.968 105.76 191.856C105.76 189.744 104.224 188.16 102.28 188.16ZM118.214 198.288C114.638 198.288 111.638 195.552 111.638 191.856C111.638 188.184 114.638 185.424 118.214 185.424C121.766 185.424 124.766 188.184 124.766 191.856C124.766 195.552 121.766 198.288 118.214 198.288ZM118.214 188.16C116.27 188.16 114.782 189.72 114.782 191.856C114.782 193.992 116.27 195.552 118.214 195.552C120.158 195.552 121.622 193.992 121.622 191.856C121.622 189.72 120.158 188.16 118.214 188.16ZM135.838 198L132.79 193.824L129.718 198H126.31L131.038 191.736L126.622 185.712H130.174L132.91 189.504L135.718 185.712H139.102L134.686 191.64L139.414 198H135.838ZM147.661 191.88C147.661 188.184 150.613 185.424 153.973 185.424C157.861 185.424 159.829 188.28 159.829 191.928C159.829 192.168 159.829 192.408 159.805 192.672H150.637C150.973 194.568 152.605 195.648 154.861 195.648C156.301 195.648 157.861 195.144 158.917 194.28V197.064C157.693 197.904 156.013 198.288 154.477 198.288C150.613 198.288 147.661 195.576 147.661 191.88ZM153.925 187.968C152.389 187.968 151.165 188.976 150.733 190.56H156.853C156.709 189.264 155.725 187.968 153.925 187.968ZM167.239 193.68C167.239 194.904 167.911 195.552 169.039 195.552C169.735 195.552 170.359 195.336 170.887 194.904V197.712C170.263 198.072 169.327 198.288 168.415 198.288C165.919 198.288 164.071 196.824 164.071 194.016V188.232H162.055V185.712H164.071V182.856L167.239 181.848V185.712H170.527V188.232H167.239V193.68ZM180.123 195.528C181.251 195.528 182.043 195.192 182.787 194.592V197.616C182.019 198.048 181.011 198.288 179.931 198.288C176.427 198.288 173.427 195.552 173.427 191.856C173.427 188.16 176.427 185.424 179.931 185.424C181.011 185.424 182.019 185.664 182.787 186.096V189.12C182.043 188.544 181.251 188.208 180.123 188.208C178.155 188.208 176.451 189.72 176.451 191.856C176.451 194.016 178.155 195.528 180.123 195.528ZM188.145 194.112C189.273 194.112 190.185 195 190.185 196.128C190.185 197.28 189.273 198.168 188.145 198.168H188.097C186.969 198.168 186.081 197.28 186.081 196.128C186.081 195 186.969 194.112 188.097 194.112H188.145Z" fill="#323439"/>
<path d="M72.2458 102.218L54.7804 84.7544C53.7755 83.7485 52.1443 83.7485 51.1381 84.7544L47.5116 88.3814L52.1117 92.9817C53.1811 92.6206 54.4069 92.8627 55.2589 93.715C56.1154 94.5725 56.3557 95.8088 55.9856 96.8818L60.4193 101.316C61.4919 100.946 62.7295 101.185 63.586 102.043C64.7835 103.24 64.7835 105.18 63.586 106.377C62.3884 107.575 60.4486 107.575 59.2503 106.377C58.3499 105.476 58.1272 104.153 58.5833 103.044L54.4484 98.9088L54.448 109.79C54.74 109.935 55.0155 110.128 55.2587 110.37C56.4558 111.567 56.4558 113.506 55.2587 114.705C54.0613 115.902 52.1206 115.902 50.9244 114.705C49.7271 113.506 49.7271 111.567 50.9244 110.37C51.2203 110.074 51.5627 109.851 51.928 109.701V98.7185C51.5625 98.5693 51.2205 98.3474 50.9242 98.0497C50.0173 97.1434 49.7989 95.8124 50.264 94.6987L45.7292 90.163L33.7546 102.138C32.7485 103.144 32.7485 104.776 33.7546 105.782L51.219 123.246C52.2245 124.251 53.8551 124.251 54.862 123.246L72.2456 105.864C73.2515 104.858 73.2515 103.226 72.2456 102.22" fill="#323439"/>
<g clip-path="url(#clip0_3630_7021)">
<path d="M90.2509 118.934L92.1472 122.142C92.5412 122.817 93.1077 123.348 93.7726 123.734L100.545 112.253H87C87 113.001 87.197 113.749 87.5911 114.424L90.2509 118.934Z" fill="#323439"/>
<path d="M108.5 98.7468L101.727 87.2664C101.062 87.6523 100.496 88.1829 100.102 88.8582L87.5911 110.083C87.2043 110.743 87.0005 111.492 87 112.253H100.545L108.5 98.7468Z" fill="#323439"/>
<path d="M123.227 123.734C123.892 123.348 124.459 122.817 124.853 122.142L125.641 120.815L129.409 114.424C129.803 113.749 130 113.001 130 112.253H116.454L119.336 117.8L123.227 123.734Z" fill="#323439"/>
<path d="M108.5 98.7468L115.273 87.2663C114.608 86.8804 113.844 86.6875 113.056 86.6875H103.944C103.156 86.6875 102.392 86.9046 101.727 87.2663L108.5 98.7468Z" fill="#323439"/>
<path d="M116.455 112.253H100.545L93.7726 123.734C94.4376 124.12 95.2011 124.312 95.9891 124.312H121.011C121.799 124.312 122.562 124.095 123.227 123.734L116.455 112.253Z" fill="#323439"/>
<path d="M123.153 99.4704L116.898 88.8582C116.504 88.1829 115.938 87.6523 115.273 87.2664L108.5 98.7468L116.455 112.253H129.975C129.975 111.506 129.778 110.758 129.384 110.083L123.153 99.4704Z" fill="#323439"/>
</g>
<defs>
<clipPath id="clip0_3630_7021">
<rect width="43" height="37.625" fill="white" transform="translate(87 86.6875)"/>
</clipPath>
</defs>
</svg>
